{
	"info": {
		"_postman_id": "33a3780b-9363-4157-845b-86d953336c1a",
		"name": "ScholarSearch Tests",
		"description": "These tests test ScholarSearch API 2.0. This collection of API requests is the trimmed down new version, with only the essential (and generalized) search requests. With these three requests, any item can be retrieved from the database.",
		"schema": "https://schema.getpostman.com/json/collection/v2.1.0/collection.json"
	},
	"item": [
		{
			"name": "Search Colleges Test",
			"event": [
				{
					"listen": "test",
					"script": {
						"id": "8b517eac-5146-4c74-b122-6cff4737490e",
						"exec": [
							"pm.test(\"response must be valid and have a body\", function () {\r",
							"     // assert that the status code is 200\r",
							"     pm.response.to.be.ok; // info, success, redirection, clientError,  serverError, are other variants\r",
							"     // assert that the response has a valid JSON body\r",
							"     pm.response.to.be.withBody;\r",
							"     pm.response.to.be.json; // this assertion also checks if a body  exists, so the above check is not needed\r",
							"   \r",
							"});\r",
							"const SEARCH = \"Texas\";\r",
							"var data = JSON.parse(responseBody)['data'];\r",
							"var valid = true;\r",
							"for (var key in data) {\r",
							"    var result = data[key];\r",
							"    if (!JSON.stringify(result).toLowerCase().includes(SEARCH.toLowerCase())) {\r",
							"        valid = false;\r",
							"        console.log(result);\r",
							"        break;\r",
							"    }\r",
							"}\r",
							"\r",
							"tests['Search Colleges Test'] = valid;"
						],
						"type": "text/javascript"
					}
				}
			],
			"request": {
				"method": "GET",
				"header": [],
				"url": {
					"raw": "https://api.scholarsearch.net/search/colleges?token=Texas&page=1",
					"protocol": "https",
					"host": [
						"api",
						"scholarsearch",
						"net"
					],
					"path": [
						"search",
						"colleges"
					],
					"query": [
						{
							"key": "token",
							"value": "Texas",
							"description": "search token (any string is allowed here)"
						},
						{
							"key": "order",
							"value": "descending",
							"description": "ascending or descending, default is ascending if key does not exist",
							"disabled": true
						},
						{
							"key": "order_by",
							"value": "undergrad_size",
							"description": "key to sort by (see models page for keys)",
							"disabled": true
						},
						{
							"key": "filters",
							"value": "in_state_tuition, popular_major",
							"description": "list of keys to filter by (see models page for keys)",
							"disabled": true
						},
						{
							"key": "mins",
							"value": "10000",
							"description": "a list of numerical values for every numerical filter;\n _ for - infinity",
							"disabled": true
						},
						{
							"key": "maxes",
							"value": "15000",
							"description": "a list of numerical values for every numerical filter;\n _ for + infinity",
							"disabled": true
						},
						{
							"key": "f2",
							"value": "Computer",
							"description": "a list of string values for every string filter",
							"disabled": true
						},
						{
							"key": "page",
							"value": "1",
							"description": "page number"
						}
					]
				},
				"description": "Tests searching the college table"
			},
			"response": []
		},
		{
			"name": "Filter Colleges Test",
			"event": [
				{
					"listen": "test",
					"script": {
						"id": "8b517eac-5146-4c74-b122-6cff4737490e",
						"exec": [
							"pm.test(\"response must be valid and have a body\", function () {\r",
							"     // assert that the status code is 200\r",
							"     pm.response.to.be.ok; // info, success, redirection, clientError,  serverError, are other variants\r",
							"     // assert that the response has a valid JSON body\r",
							"     pm.response.to.be.withBody;\r",
							"     pm.response.to.be.json; // this assertion also checks if a body  exists, so the above check is not needed\r",
							"   \r",
							"});\r",
							"\r",
							"const NUMBER_FILTER_DATA = {\r",
							"    \"in_state_tuition\": [10000, 15000]\r",
							"}\r",
							"\r",
							"const STRING_FILTER_DATA = {\r",
							"    \"popular_major\": \"Computer\"\r",
							"}\r",
							"\r",
							"\r",
							"function checkNumber(result) {\r",
							"    for (var key in NUMBER_FILTER_DATA) {\r",
							"        var min = NUMBER_FILTER_DATA[key][0];\r",
							"        var max = NUMBER_FILTER_DATA[key][1];\r",
							"        \r",
							"        if (result[key] > max || result[key] < min) {\r",
							"            return false;\r",
							"        }\r",
							"    }\r",
							"    \r",
							"    return true;\r",
							"}\r",
							"\r",
							"function checkString(result) {\r",
							"    for (var key in STRING_FILTER_DATA) {\r",
							"        if (result[key].toLowerCase() != STRING_FILTER_DATA[key].toLowerCase()) {\r",
							"            return false;\r",
							"        }\r",
							"    }\r",
							"    \r",
							"    return true;\r",
							"}\r",
							"\r",
							"var data = JSON.parse(responseBody)['data'];\r",
							"\r",
							"var valid = true;\r",
							"for (var key in data) {\r",
							"    var result = data[key];\r",
							"    if (! (checkNumber(result) && checkString(result)) ) {\r",
							"        valid = false;\r",
							"        console.log(key);\r",
							"        break;\r",
							"    }\r",
							"}\r",
							"\r",
							"tests['Filter Colleges Test'] = valid;"
						],
						"type": "text/javascript"
					}
				}
			],
			"request": {
				"method": "GET",
				"header": [],
				"url": {
					"raw": "https://api.scholarsearch.net/search/colleges?filters=in_state_tuition, popular_major&mins=10000&maxes=15000&f2=Computer&page=1",
					"protocol": "https",
					"host": [
						"api",
						"scholarsearch",
						"net"
					],
					"path": [
						"search",
						"colleges"
					],
					"query": [
						{
							"key": "token",
							"value": "Texas",
							"description": "search token (any string is allowed here)",
							"disabled": true
						},
						{
							"key": "order",
							"value": "descending",
							"description": "ascending or descending, default is ascending if key does not exist",
							"disabled": true
						},
						{
							"key": "order_by",
							"value": "undergrad_size",
							"description": "key to sort by (see models page for keys)",
							"disabled": true
						},
						{
							"key": "filters",
							"value": "in_state_tuition, popular_major",
							"description": "list of keys to filter by (see models page for keys)"
						},
						{
							"key": "mins",
							"value": "10000",
							"description": "a list of numerical values for every numerical filter;\n _ for - infinity"
						},
						{
							"key": "maxes",
							"value": "15000",
							"description": "a list of numerical values for every numerical filter;\n _ for + infinity"
						},
						{
							"key": "f2",
							"value": "Computer",
							"description": "a list of string values for every string filter"
						},
						{
							"key": "page",
							"value": "1",
							"description": "page number"
						}
					]
				},
				"description": "Tests filtering the colleges table"
			},
			"response": []
		},
		{
			"name": "Sorting Colleges Test",
			"event": [
				{
					"listen": "test",
					"script": {
						"id": "8b517eac-5146-4c74-b122-6cff4737490e",
						"exec": [
							"pm.test(\"response must be valid and have a body\", function () {\r",
							"     // assert that the status code is 200\r",
							"     pm.response.to.be.ok; // info, success, redirection, clientError,  serverError, are other variants\r",
							"     // assert that the response has a valid JSON body\r",
							"     pm.response.to.be.withBody;\r",
							"     pm.response.to.be.json; // this assertion also checks if a body  exists, so the above check is not needed\r",
							"});\r",
							"\r",
							"const ascending = false;\r",
							"const order_by = \"undergrad_size\"\r",
							"\r",
							"var data = JSON.parse(responseBody)['data'];\r",
							"\r",
							"var valid = true;\r",
							"var values = Object.keys(data).map(function(key){\r",
							"    return data[key];\r",
							"});\r",
							"\r",
							"for (var i = 0; i < data.length - 1; i ++) {\r",
							"    var curr = data[i];\r",
							"    var next = data[i + 1];\r",
							"    \r",
							"    if (ascending && curr[order_by] > next[order_by]) {\r",
							"        valid = false;\r",
							"        break;\r",
							"    } else if (!ascending &&  curr[order_by] < next[order_by]) {\r",
							"        valid = false;\r",
							"        break;\r",
							"    }\r",
							"}\r",
							"\r",
							"tests['Sort Colleges Test'] = valid;"
						],
						"type": "text/javascript"
					}
				}
			],
			"request": {
				"method": "GET",
				"header": [],
				"url": {
					"raw": "https://api.scholarsearch.net/search/colleges?order=descending&order_by=undergrad_size&page=1",
					"protocol": "https",
					"host": [
						"api",
						"scholarsearch",
						"net"
					],
					"path": [
						"search",
						"colleges"
					],
					"query": [
						{
							"key": "token",
							"value": "Texas",
							"description": "search token (any string is allowed here)",
							"disabled": true
						},
						{
							"key": "order",
							"value": "descending",
							"description": "ascending or descending, default is ascending if key does not exist"
						},
						{
							"key": "order_by",
							"value": "undergrad_size",
							"description": "key to sort by (see models page for keys)"
						},
						{
							"key": "filters",
							"value": "in_state_tuition, popular_major",
							"description": "list of keys to filter by (see models page for keys)",
							"disabled": true
						},
						{
							"key": "mins",
							"value": "10000",
							"description": "a list of numerical values for every numerical filter;\n _ for - infinity",
							"disabled": true
						},
						{
							"key": "maxes",
							"value": "15000",
							"description": "a list of numerical values for every numerical filter;\n _ for + infinity",
							"disabled": true
						},
						{
							"key": "f2",
							"value": "Computer",
							"description": "a list of string values for every string filter",
							"disabled": true
						},
						{
							"key": "page",
							"value": "1",
							"description": "page number"
						}
					]
				},
				"description": "Tests sorting the colleges table"
			},
			"response": []
		},
		{
			"name": "Search Cities Test",
			"event": [
				{
					"listen": "test",
					"script": {
						"id": "23aef2a6-4508-4b9b-b740-a4694b10d842",
						"exec": [
							"pm.test(\"response must be valid and have a body\", function () {\r",
							"     // assert that the status code is 200\r",
							"     pm.response.to.be.ok; // info, success, redirection, clientError,  serverError, are other variants\r",
							"     // assert that the response has a valid JSON body\r",
							"     pm.response.to.be.withBody;\r",
							"     pm.response.to.be.json; // this assertion also checks if a body  exists, so the above check is not needed\r",
							"   \r",
							"});\r",
							"const SEARCH = \"ville\";\r",
							"var data = JSON.parse(responseBody)['data'];\r",
							"var valid = true;\r",
							"for (var key in data) {\r",
							"    var result = data[key];\r",
							"    if (!JSON.stringify(result).toLowerCase().includes(SEARCH.toLowerCase())) {\r",
							"        valid = false;\r",
							"        console.log(result);\r",
							"        break;\r",
							"    }\r",
							"}\r",
							"\r",
							"tests['Search Cities Test'] = valid;"
						],
						"type": "text/javascript"
					}
				}
			],
			"request": {
				"method": "GET",
				"header": [],
				"url": {
					"raw": "https://api.scholarsearch.net/search/cities?token=ville&page=1",
					"protocol": "https",
					"host": [
						"api",
						"scholarsearch",
						"net"
					],
					"path": [
						"search",
						"cities"
					],
					"query": [
						{
							"key": "token",
							"value": "ville",
							"description": "search token (any string is allowed here)"
						},
						{
							"key": "order",
							"value": "ascending",
							"description": "ascending or descending, default is ascending if key does not exist",
							"disabled": true
						},
						{
							"key": "order_by",
							"value": "monthly_cost_of_living",
							"description": "key to sort by (see models page for keys)",
							"disabled": true
						},
						{
							"key": "filters",
							"value": "avg_monthly_salary, state",
							"description": "list of keys to filter by (see models page for keys)",
							"disabled": true
						},
						{
							"key": "mins",
							"value": "50000",
							"description": "a list of numerical values for every numerical filter;\n _ for - infinity",
							"disabled": true
						},
						{
							"key": "maxes",
							"value": "_",
							"description": "a list of numerical values for every numerical filter;\n _ for + infinity",
							"disabled": true
						},
						{
							"key": "f2",
							"value": "TX",
							"description": "a list of string values for every string filter",
							"disabled": true
						},
						{
							"key": "page",
							"value": "1",
							"description": "page number"
						}
					]
				},
				"description": "Tests searching the cities table"
			},
			"response": []
		},
		{
			"name": "Filter Cities Test",
			"event": [
				{
					"listen": "test",
					"script": {
						"id": "f0fc50cf-6066-4881-b751-a6c056e1a848",
						"exec": [
							"pm.test(\"response must be valid and have a body\", function () {\r",
							"     // assert that the status code is 200\r",
							"     pm.response.to.be.ok; // info, success, redirection, clientError,  serverError, are other variants\r",
							"     // assert that the response has a valid JSON body\r",
							"     pm.response.to.be.withBody;\r",
							"     pm.response.to.be.json; // this assertion also checks if a body  exists, so the above check is not needed\r",
							"   \r",
							"});\r",
							"\r",
							"const NUMBER_FILTER_DATA = {\r",
							"    \"avg_monthly_salary\": 50000\r",
							"}\r",
							"\r",
							"const STRING_FILTER_DATA = {\r",
							"    \"state\": \"TX\"\r",
							"}\r",
							"\r",
							"\r",
							"function checkNumber(result) {\r",
							"    for (var key in NUMBER_FILTER_DATA) {\r",
							"        var min = NUMBER_FILTER_DATA[key][0];\r",
							"        //var max = NUMBER_FILTER_DATA[key][1];\r",
							"        \r",
							"        if (result[key] < min) {\r",
							"            return false;\r",
							"        }\r",
							"    }\r",
							"    \r",
							"    return true;\r",
							"}\r",
							"\r",
							"function checkString(result) {\r",
							"    for (var key in STRING_FILTER_DATA) {\r",
							"        if (result[key].toLowerCase() != STRING_FILTER_DATA[key].toLowerCase()) {\r",
							"            return false;\r",
							"        }\r",
							"    }\r",
							"    \r",
							"    return true;\r",
							"}\r",
							"\r",
							"var data = JSON.parse(responseBody)['data'];\r",
							"\r",
							"var valid = true;\r",
							"for (var key in data) {\r",
							"    var result = data[key];\r",
							"    if (! (checkNumber(result) && checkString(result)) ) {\r",
							"        valid = false;\r",
							"        console.log(key);\r",
							"        break;\r",
							"    }\r",
							"}\r",
							"\r",
							"tests['Filter Cities Test'] = valid;"
						],
						"type": "text/javascript"
					}
				}
			],
			"request": {
				"method": "GET",
				"header": [],
				"url": {
					"raw": "https://api.scholarsearch.net/search/cities?filters=avg_monthly_salary, state&mins=50000&maxes=_&f2=TX&page=1",
					"protocol": "https",
					"host": [
						"api",
						"scholarsearch",
						"net"
					],
					"path": [
						"search",
						"cities"
					],
					"query": [
						{
							"key": "token",
							"value": "ville",
							"description": "search token (any string is allowed here)",
							"disabled": true
						},
						{
							"key": "order",
							"value": "ascending",
							"description": "ascending or descending, default is ascending if key does not exist",
							"disabled": true
						},
						{
							"key": "order_by",
							"value": "monthly_cost_of_living",
							"description": "key to sort by (see models page for keys)",
							"disabled": true
						},
						{
							"key": "filters",
							"value": "avg_monthly_salary, state",
							"description": "list of keys to filter by (see models page for keys)"
						},
						{
							"key": "mins",
							"value": "50000",
							"description": "a list of numerical values for every numerical filter;\n _ for - infinity"
						},
						{
							"key": "maxes",
							"value": "_",
							"description": "a list of numerical values for every numerical filter;\n _ for + infinity"
						},
						{
							"key": "f2",
							"value": "TX",
							"description": "a list of string values for every string filter"
						},
						{
							"key": "page",
							"value": "1",
							"description": "page number"
						}
					]
				},
				"description": "Tests filtering the cities table"
			},
			"response": []
		},
		{
			"name": "Sort CIties Test",
			"event": [
				{
					"listen": "test",
					"script": {
						"id": "7fca056d-a2ea-4223-9f19-8b9f2cbaf079",
						"exec": [
							"pm.test(\"response must be valid and have a body\", function () {\r",
							"     // assert that the status code is 200\r",
							"     pm.response.to.be.ok; // info, success, redirection, clientError,  serverError, are other variants\r",
							"     // assert that the response has a valid JSON body\r",
							"     pm.response.to.be.withBody;\r",
							"     pm.response.to.be.json; // this assertion also checks if a body  exists, so the above check is not needed\r",
							"});\r",
							"\r",
							"const ascending = true;\r",
							"const order_by = \"monthly_cost_of_living\"\r",
							"\r",
							"var data = JSON.parse(responseBody)['data'];\r",
							"\r",
							"var valid = true;\r",
							"var values = Object.keys(data).map(function(key){\r",
							"    return data[key];\r",
							"});\r",
							"\r",
							"for (var i = 0; i < data.length - 1; i ++) {\r",
							"    var curr = data[i];\r",
							"    var next = data[i + 1];\r",
							"    \r",
							"    if (ascending && curr[order_by] > next[order_by]) {\r",
							"        valid = false;\r",
							"        break;\r",
							"    } else if (!ascending &&  curr[order_by] < next[order_by]) {\r",
							"        valid = false;\r",
							"        break;\r",
							"    }\r",
							"}\r",
							"\r",
							"tests['Sort Cities Test'] = valid;"
						],
						"type": "text/javascript"
					}
				}
			],
			"request": {
				"method": "GET",
				"header": [],
				"url": {
					"raw": "https://api.scholarsearch.net/search/cities?order=ascending&order_by=monthly_cost_of_living&page=1",
					"protocol": "https",
					"host": [
						"api",
						"scholarsearch",
						"net"
					],
					"path": [
						"search",
						"cities"
					],
					"query": [
						{
							"key": "token",
							"value": "ville",
							"description": "search token (any string is allowed here)",
							"disabled": true
						},
						{
							"key": "order",
							"value": "ascending",
							"description": "ascending or descending, default is ascending if key does not exist"
						},
						{
							"key": "order_by",
							"value": "monthly_cost_of_living",
							"description": "key to sort by (see models page for keys)"
						},
						{
							"key": "filters",
							"value": "avg_monthly_salary, state",
							"description": "list of keys to filter by (see models page for keys)",
							"disabled": true
						},
						{
							"key": "mins",
							"value": "50000",
							"description": "a list of numerical values for every numerical filter;\n _ for - infinity",
							"disabled": true
						},
						{
							"key": "maxes",
							"value": "_",
							"description": "a list of numerical values for every numerical filter;\n _ for + infinity",
							"disabled": true
						},
						{
							"key": "f2",
							"value": "TX",
							"description": "a list of string values for every string filter",
							"disabled": true
						},
						{
							"key": "page",
							"value": "1",
							"description": "page number"
						}
					]
				},
				"description": "Tests sorting the cities table"
			},
			"response": []
		},
		{
			"name": "Search Events Test",
			"event": [
				{
					"listen": "test",
					"script": {
						"id": "166d7800-cb7e-47fa-a777-f292b9f9ba54",
						"exec": [
							"pm.test(\"response must be valid and have a body\", function () {\r",
							"     // assert that the status code is 200\r",
							"     pm.response.to.be.ok; // info, success, redirection, clientError,  serverError, are other variants\r",
							"     // assert that the response has a valid JSON body\r",
							"     pm.response.to.be.withBody;\r",
							"     pm.response.to.be.json; // this assertion also checks if a body  exists, so the above check is not needed\r",
							"   \r",
							"});\r",
							"const SEARCH = \"ball\";\r",
							"var data = JSON.parse(responseBody)['data'];\r",
							"var valid = true;\r",
							"for (var key in data) {\r",
							"    var result = data[key];\r",
							"    if (!JSON.stringify(result).toLowerCase().includes(SEARCH.toLowerCase())) {\r",
							"        valid = false;\r",
							"        console.log(result);\r",
							"        break;\r",
							"    }\r",
							"}\r",
							"\r",
							"tests['Search Events Test'] = valid;"
						],
						"type": "text/javascript"
					}
				}
			],
			"request": {
				"method": "GET",
				"header": [],
				"url": {
					"raw": "https://api.scholarsearch.net/search/events?token=ball&page=1",
					"protocol": "https",
					"host": [
						"api",
						"scholarsearch",
						"net"
					],
					"path": [
						"search",
						"events"
					],
					"query": [
						{
							"key": "token",
							"value": "ball",
							"description": "search token (any string is allowed here)"
						},
						{
							"key": "order",
							"value": "descending",
							"description": "ascending or descending, default is ascending if key does not exist",
							"disabled": true
						},
						{
							"key": "order_by",
							"value": "name",
							"description": "key to sort by (see models page for keys)",
							"disabled": true
						},
						{
							"key": "filters",
							"value": "cost",
							"description": "list of keys to filter by (see models page for keys)",
							"disabled": true
						},
						{
							"key": "mins",
							"value": "0",
							"description": "a list of numerical values for every numerical filter;\n _ for - infinity",
							"disabled": true
						},
						{
							"key": "maxes",
							"value": "1000",
							"description": "a list of numerical values for every numerical filter;\n _ for + infinity",
							"disabled": true
						},
						{
							"key": "f2",
							"value": null,
							"description": "a list of string values for every string filter",
							"disabled": true
						},
						{
							"key": "page",
							"value": "1",
							"description": "page number"
						}
					]
				},
				"description": "Tests searching the events table"
			},
			"response": []
		},
		{
			"name": "Filter Events Test",
			"event": [
				{
					"listen": "test",
					"script": {
						"id": "99cd6a40-d594-4555-8978-f5afbda3839a",
						"exec": [
							"pm.test(\"response must be valid and have a body\", function () {\r",
							"     // assert that the status code is 200\r",
							"     pm.response.to.be.ok; // info, success, redirection, clientError,  serverError, are other variants\r",
							"     // assert that the response has a valid JSON body\r",
							"     pm.response.to.be.withBody;\r",
							"     pm.response.to.be.json; // this assertion also checks if a body  exists, so the above check is not needed\r",
							"   \r",
							"});\r",
							"\r",
							"const NUMBER_FILTER_DATA = {\r",
							"    \"cost\": [0, 1000]\r",
							"}\r",
							"\r",
							"\r",
							"\r",
							"function checkNumber(result) {\r",
							"    for (var key in NUMBER_FILTER_DATA) {\r",
							"        var min = NUMBER_FILTER_DATA[key][0];\r",
							"        var max = NUMBER_FILTER_DATA[key][1];\r",
							"        \r",
							"        if (result[key] > max || result[key] < min) {\r",
							"            return false;\r",
							"        }\r",
							"    }\r",
							"    \r",
							"    return true;\r",
							"}\r",
							"\r",
							"// function checkString(result) {\r",
							"//     for (var key in STRING_FILTER_DATA) {\r",
							"//         if (result[key].toLowerCase() != STRING_FILTER_DATA[key].toLowerCase()) {\r",
							"//             return false;\r",
							"//         }\r",
							"//     }\r",
							"    \r",
							"//     return true;\r",
							"// }\r",
							"\r",
							"var data = JSON.parse(responseBody)['data'];\r",
							"\r",
							"var valid = true;\r",
							"for (var key in data) {\r",
							"    var result = data[key];\r",
							"    if (! checkNumber(result) ) {\r",
							"        valid = false;\r",
							"        console.log(key);\r",
							"        break;\r",
							"    }\r",
							"}\r",
							"\r",
							"tests['Filter Events Test'] = valid;"
						],
						"type": "text/javascript"
					}
				}
			],
			"request": {
				"method": "GET",
				"header": [],
				"url": {
					"raw": "https://api.scholarsearch.net/search/events?filters=cost&mins=0&maxes=1000&f2&page=1",
					"protocol": "https",
					"host": [
						"api",
						"scholarsearch",
						"net"
					],
					"path": [
						"search",
						"events"
					],
					"query": [
						{
							"key": "token",
							"value": "ball",
							"description": "search token (any string is allowed here)",
							"disabled": true
						},
						{
							"key": "order",
							"value": "descending",
							"description": "ascending or descending, default is ascending if key does not exist",
							"disabled": true
						},
						{
							"key": "order_by",
							"value": "name",
							"description": "key to sort by (see models page for keys)",
							"disabled": true
						},
						{
							"key": "filters",
							"value": "cost",
							"description": "list of keys to filter by (see models page for keys)"
						},
						{
							"key": "mins",
							"value": "0",
							"description": "a list of numerical values for every numerical filter;\n _ for - infinity"
						},
						{
							"key": "maxes",
							"value": "1000",
							"description": "a list of numerical values for every numerical filter;\n _ for + infinity"
						},
						{
							"key": "f2",
							"value": null,
							"description": "a list of string values for every string filter"
						},
						{
							"key": "page",
							"value": "1",
							"description": "page number"
						}
					]
				},
				"description": "Tests filtering the events table"
			},
			"response": []
		},
		{
			"name": "Sort Events Test",
			"event": [
				{
					"listen": "test",
					"script": {
						"id": "dbd13c51-b84e-43d6-b29e-bab20b34c43c",
						"exec": [
							"pm.test(\"response must be valid and have a body\", function () {\r",
							"     // assert that the status code is 200\r",
							"     pm.response.to.be.ok; // info, success, redirection, clientError,  serverError, are other variants\r",
							"     // assert that the response has a valid JSON body\r",
							"     pm.response.to.be.withBody;\r",
							"     pm.response.to.be.json; // this assertion also checks if a body  exists, so the above check is not needed\r",
							"});\r",
							"\r",
							"const ascending = false;\r",
							"const order_by = \"name\"\r",
							"\r",
							"var data = JSON.parse(responseBody)['data'];\r",
							"\r",
							"var valid = true;\r",
							"var values = Object.keys(data).map(function(key){\r",
							"    return data[key];\r",
							"});\r",
							"\r",
							"for (var i = 0; i < data.length - 1; i ++) {\r",
							"    var curr = data[i];\r",
							"    var next = data[i + 1];\r",
							"    \r",
							"    if (ascending && curr[order_by] > next[order_by]) {\r",
							"        valid = false;\r",
							"        break;\r",
							"    } else if (!ascending &&  curr[order_by] < next[order_by]) {\r",
							"        valid = false;\r",
							"        break;\r",
							"    }\r",
							"}\r",
							"\r",
							"tests['Sort Events Test'] = valid;"
						],
						"type": "text/javascript"
					}
				}
			],
			"request": {
				"method": "GET",
				"header": [],
				"url": {
					"raw": "https://api.scholarsearch.net/search/events?order=descending&order_by=name&page=1",
					"protocol": "https",
					"host": [
						"api",
						"scholarsearch",
						"net"
					],
					"path": [
						"search",
						"events"
					],
					"query": [
						{
							"key": "token",
							"value": "ball",
							"description": "search token (any string is allowed here)",
							"disabled": true
						},
						{
							"key": "order",
							"value": "descending",
							"description": "ascending or descending, default is ascending if key does not exist"
						},
						{
							"key": "order_by",
							"value": "name",
							"description": "key to sort by (see models page for keys)"
						},
						{
							"key": "filters",
							"value": "cost",
							"description": "list of keys to filter by (see models page for keys)",
							"disabled": true
						},
						{
							"key": "mins",
							"value": "0",
							"description": "a list of numerical values for every numerical filter;\n _ for - infinity",
							"disabled": true
						},
						{
							"key": "maxes",
							"value": "1000",
							"description": "a list of numerical values for every numerical filter;\n _ for + infinity",
							"disabled": true
						},
						{
							"key": "f2",
							"value": null,
							"description": "a list of string values for every string filter",
							"disabled": true
						},
						{
							"key": "page",
							"value": "1",
							"description": "page number"
						}
					]
				},
				"description": "Tests sorting the events table"
			},
			"response": []
		}
	],
	"variable": [
		{
			"id": "70769624-4151-4cf5-b654-adf173015bfd",
			"key": "token",
			"value": "",
			"type": "string",
			"disabled": true
		},
		{
			"id": "e0e30109-9e05-4833-a1ae-f5db3391f187",
			"key": "order",
			"value": "",
			"type": "string",
			"disabled": true
		},
		{
			"id": "bba6dd79-0585-4a90-9f0a-6d59dc769d5e",
			"key": "order_by",
			"value": "",
			"type": "string",
			"disabled": true
		},
		{
			"id": "ecd9b1f8-4b9f-4917-b78c-a4a38d833093",
			"key": "page",
			"value": "",
			"type": "string",
			"disabled": true
		},
		{
			"id": "5cd6a955-1c06-4ba4-b2c4-6822114d99fd",
			"key": "filters",
			"value": "",
			"type": "string",
			"disabled": true
		},
		{
			"id": "15657f64-e1f5-4d3f-9c5b-e7f5adab6fda",
			"key": "mins",
			"value": "",
			"type": "string",
			"disabled": true
		},
		{
			"id": "e6ebc716-8d4d-4899-b82c-dd817614438e",
			"key": "maxes",
			"value": "",
			"type": "string",
			"disabled": true
		},
		{
			"id": "b96dcb05-d93e-4abc-93ce-805bc9e498ad",
			"key": "f2",
			"value": "",
			"type": "string",
			"disabled": true
		}
	],
	"protocolProfileBehavior": {}
}