State = AL
City = Daphne
[['Daphne city, Alabama', '26506', '01', '19648']]
total population: %d 26506
City = Selma
[['Selma city, Alabama', '17886', '01', '69120']]
total population: %d 17886
City = Talladega
[['Talladega city, Alabama', '15291', '01', '74592']]
total population: %d 15291
City = Livingston
[['Livingston city, Alabama', '3364', '01', '43720']]
total population: %d 3364
City = Montevallo
[['Montevallo city, Alabama', '6674', '01', '50312']]
total population: %d 6674
City = Tuskegee
[['Tuskegee city, Alabama', '8413', '01', '77304']]
total population: %d 8413
City = Montgomery
[['Montgomery city, Alabama', '198218', '01', '51000']]
total population: %d 198218
City = Florence
[['Florence city, Alabama', '40428', '01', '26896']]
total population: %d 40428
City = Mobile
[['Mobile city, Alabama', '189572', '01', '50000']]
total population: %d 189572
City = Birmingham
[['Birmingham city, Alabama', '209880', '01', '07000']]
total population: %d 209880
City = Troy
[['Troy city, Alabama', '19126', '01', '76920']]
total population: %d 19126
City = Orange Beach
[['Orange Beach city, Alabama', '6114', '01', '57144']]
total population: %d 6114
City = Auburn
[['Auburn city, Alabama', '65738', '01', '03076']]
total population: %d 65738
City = Tuscaloosa
[['Tuscaloosa city, Alabama', '101113', '01', '77256']]
total population: %d 101113
State = AK
City = Palmer
[['Palmer city, Alaska', '7306', '02', '58660']]
total population: %d 7306
City = Juneau
[['Juneau city and borough, Alaska', '32113', '02', '36400']]
total population: %d 32113
City = Fairbanks
[['Fairbanks city, Alaska', '31516', '02', '24230']]
total population: %d 31516
City = Anchorage
[]
total population: %d 0
State = AZ
City = Sierra Vista
[['Sierra Vista city, Arizona', '44420', '04', '66820']]
total population: %d 44420
City = Prescott
[['Prescott city, Arizona', '43314', '04', '57380']]
total population: %d 43314
City = Glendale
[['Glendale city, Arizona', '250702', '04', '27820']]
total population: %d 250702
City = Mesa
[['Mesa city, Arizona', '508958', '04', '46000']]
total population: %d 508958
City = Chandler
[['Chandler city, Arizona', '257165', '04', '12000']]
total population: %d 257165
City = Scottsdale
[['Scottsdale city, Arizona', '255310', '04', '65000']]
total population: %d 255310
City = Flagstaff
[['Flagstaff city, Arizona', '73964', '04', '23620']]
total population: %d 73964
City = Tucson
[['South Tucson city, Arizona', '5697', '04', '68850'], ['Tucson city, Arizona', '545975', '04', '77000']]
total population: %d 551672
City = Phoenix
[['Phoenix city, Arizona', '1660272', '04', '55000']]
total population: %d 1660272
City = Tempe
[['Tempe city, Arizona', '192364', '04', '73000']]
total population: %d 192364
State = AR
City = Paragould
[['Paragould city, Arkansas', '28912', '05', '53390']]
total population: %d 28912
City = Springdale
[['Springdale city, Arkansas', '81029', '05', '66080']]
total population: %d 81029
City = Walnut Ridge
[['Walnut Ridge city, Arkansas', '5062', '05', '72890']]
total population: %d 5062
City = Batesville
[['Batesville city, Arkansas', '10828', '05', '04030']]
total population: %d 10828
City = Siloam Springs
[['Siloam Springs city, Arkansas', '16991', '05', '64370']]
total population: %d 16991
City = Pine Bluff
[['Pine Bluff city, Arkansas', '42271', '05', '55310']]
total population: %d 42271
City = Arkadelphia
[['Arkadelphia city, Arkansas', '10475', '05', '01870']]
total population: %d 10475
City = Magnolia
[['Magnolia city, Arkansas', '11477', '05', '43460']]
total population: %d 11477
City = Searcy
[['Searcy city, Arkansas', '23768', '05', '63020']]
total population: %d 23768
City = Fort Smith
[['Fort Smith city, Arkansas', '87845', '05', '24550']]
total population: %d 87845
City = Little Rock
[['Little Rock city, Arkansas', '197881', '05', '41000'], ['North Little Rock city, Arkansas', '66127', '05', '50450']]
total population: %d 264008
City = Russellville
[['Russellville city, Arkansas', '29325', '05', '61670']]
total population: %d 29325
City = Jonesboro
[['Jonesboro city, Arkansas', '76990', '05', '35710']]
total population: %d 76990
City = Fayetteville
[['Fayetteville city, Arkansas', '86751', '05', '23290']]
total population: %d 86751
State = CA
City = Monterey
[['Monterey city, California', '28289', '06', '48872']]
total population: %d 28289
City = Van Nuys
[]
total population: %d 0
City = Santa Fe Springs
[['Santa Fe Springs city, California', '17832', '06', '69154']]
total population: %d 17832
City = El Cajon
[['El Cajon city, California', '103241', '06', '21712']]
total population: %d 103241
City = Alameda
[['Alameda city, California', '78338', '06', '00562']]
total population: %d 78338
City = Pleasant Hill
[['Pleasant Hill city, California', '34903', '06', '57764']]
total population: %d 34903
City = Palo Alto
[['East Palo Alto city, California', '29519', '06', '20956'], ['Palo Alto city, California', '66666', '06', '55282']]
total population: %d 96185
City = Rancho Cordova
[['Rancho Cordova city, California', '74585', '06', '59444']]
total population: %d 74585
City = Rosemead
[['Rosemead city, California', '54412', '06', '62896']]
total population: %d 54412
City = Culver City
[['Culver City city, California', '39214', '06', '17568']]
total population: %d 39214
City = Monrovia
[['Monrovia city, California', '36715', '06', '48648']]
total population: %d 36715
City = Signal Hill
[['Signal Hill city, California', '11555', '06', '71876']]
total population: %d 11555
City = Escondido
[['Escondido city, California', '152213', '06', '22804']]
total population: %d 152213
City = Emeryville
[['Emeryville city, California', '12104', '06', '22594']]
total population: %d 12104
City = Santa Paula
[['Santa Paula city, California', '30011', '06', '70042']]
total population: %d 30011
City = Aliso Viejo
[['Aliso Viejo city, California', '51783', '06', '00947']]
total population: %d 51783
City = Tarzana
[]
total population: %d 0
City = Los Alamitos
[['Los Alamitos city, California', '11529', '06', '43224']]
total population: %d 11529
City = El Dorado Hills
[]
total population: %d 0
City = Santa Ana
[['Santa Ana city, California', '332725', '06', '69000']]
total population: %d 332725
City = Laguna Beach
[['Laguna Beach city, California', '22991', '06', '39178']]
total population: %d 22991
City = Santee
[['Santee city, California', '58115', '06', '70224']]
total population: %d 58115
City = Redding
[['Redding city, California', '91772', '06', '59920']]
total population: %d 91772
City = Atherton
[['Atherton town, California', '7187', '06', '03092']]
total population: %d 7187
City = Oakland
[['Oakland city, California', '429082', '06', '53000']]
total population: %d 429082
City = Rancho Palos Verdes
[['Rancho Palos Verdes city, California', '41928', '06', '59514']]
total population: %d 41928
City = Valencia
[]
total population: %d 0
City = Burbank
[['Burbank city, California', '103695', '06', '08954']]
total population: %d 103695
City = Vallejo
[['Vallejo city, California', '121913', '06', '81666']]
total population: %d 121913
City = Loma Linda
[['Loma Linda city, California', '24382', '06', '42370']]
total population: %d 24382
City = Santa Clarita
[['Santa Clarita city, California', '210089', '06', '69088']]
total population: %d 210089
City = Angwin
[]
total population: %d 0
City = Rocklin
[['Rocklin city, California', '67221', '06', '62364']]
total population: %d 67221
City = San Rafael
[['San Rafael city, California', '58704', '06', '68364']]
total population: %d 58704
City = Claremont
[['Claremont city, California', '36478', '06', '13756']]
total population: %d 36478
City = North Hollywood
[]
total population: %d 0
City = Whittier
[['Whittier city, California', '86064', '06', '85292']]
total population: %d 86064
City = Costa Mesa
[['Costa Mesa city, California', '113615', '06', '16532']]
total population: %d 113615
City = San Dimas
[['San Dimas city, California', '33982', '06', '66070']]
total population: %d 33982
City = Anaheim
[['Anaheim city, California', '352005', '06', '02000']]
total population: %d 352005
City = Pasadena
[['Pasadena city, California', '141371', '06', '56000'], ['South Pasadena city, California', '25611', '06', '73220']]
total population: %d 166982
City = Moraga
[['Moraga town, California', '17692', '06', '49187']]
total population: %d 17692
City = Thousand Oaks
[['Thousand Oaks city, California', '127690', '06', '78582']]
total population: %d 127690
City = Redlands
[['Redlands city, California', '71586', '06', '59962']]
total population: %d 71586
City = Stockton
[['Stockton city, California', '311178', '06', '75000']]
total population: %d 311178
City = Malibu
[['Malibu city, California', '12777', '06', '45246']]
total population: %d 12777
City = Cypress
[['Cypress city, California', '48958', '06', '17750']]
total population: %d 48958
City = La Mirada
[['La Mirada city, California', '48683', '06', '40032']]
total population: %d 48683
City = La Verne
[['La Verne city, California', '32206', '06', '40830']]
total population: %d 32206
City = Santa Clara
[['Santa Clara city, California', '129488', '06', '69084']]
total population: %d 129488
City = Azusa
[['Azusa city, California', '49958', '06', '03386']]
total population: %d 49958
City = Seaside
[['Seaside city, California', '33930', '06', '70742']]
total population: %d 33930
City = Orange
[['Orange city, California', '139484', '06', '53980']]
total population: %d 139484
City = Camarillo
[['Camarillo city, California', '69127', '06', '10046']]
total population: %d 69127
City = Stanford
[]
total population: %d 0
City = Merced
[['Merced city, California', '83316', '06', '46898']]
total population: %d 83316
City = Arcata
[['Arcata city, California', '18257', '06', '02476']]
total population: %d 18257
City = Ontario
[['Ontario city, California', '181107', '06', '53896']]
total population: %d 181107
City = Rohnert Park
[['Rohnert Park city, California', '43753', '06', '62546']]
total population: %d 43753
City = Bakersfield
[['Bakersfield city, California', '383579', '06', '03526']]
total population: %d 383579
City = Turlock
[['Turlock city, California', '73504', '06', '80812']]
total population: %d 73504
City = Carson
[['Carson city, California', '91909', '06', '11530']]
total population: %d 91909
City = Hayward
[['Hayward city, California', '159620', '06', '33000']]
total population: %d 159620
City = Chico
[['Chico city, California', '94776', '06', '13014']]
total population: %d 94776
City = Santa Cruz
[['Santa Cruz city, California', '64725', '06', '69112']]
total population: %d 64725
City = San Bernardino
[['San Bernardino city, California', '215941', '06', '65000']]
total population: %d 215941
City = Riverside
[['Riverside city, California', '330063', '06', '62000']]
total population: %d 330063
City = San Luis Obispo
[['San Luis Obispo city, California', '47446', '06', '68154']]
total population: %d 47446
City = Fresno
[['Fresno city, California', '530093', '06', '27000']]
total population: %d 530093
City = Santa Barbara
[['Santa Barbara city, California', '91350', '06', '69070']]
total population: %d 91350
City = Pomona
[['Pomona city, California', '152361', '06', '58072']]
total population: %d 152361
City = San Francisco
[['San Francisco city, California', '883305', '06', '67000'], ['South San Francisco city, California', '67733', '06', '73262']]
total population: %d 951038
City = San Jose
[['San Jose city, California', '1030119', '06', '68000']]
total population: %d 1030119
City = Sacramento
[['Sacramento city, California', '508529', '06', '64000'], ['West Sacramento city, California', '53727', '06', '84816']]
total population: %d 562256
City = La Jolla
[]
total population: %d 0
City = Irvine
[['Irvine city, California', '282572', '06', '36770']]
total population: %d 282572
City = Davis
[['Davis city, California', '69289', '06', '18100']]
total population: %d 69289
City = Berkeley
[['Berkeley city, California', '121643', '06', '06000']]
total population: %d 121643
City = Los Angeles
[['Los Angeles city, California', '3990456', '06', '44000']]
total population: %d 3990456
City = San Diego
[['San Diego city, California', '1425976', '06', '66000']]
total population: %d 1425976
City = Long Beach
[['Long Beach city, California', '467354', '06', '43000']]
total population: %d 467354
City = Fullerton
[['Fullerton city, California', '139640', '06', '28000']]
total population: %d 139640
City = Northridge
[]
total population: %d 0
State = CO
City = Lone Tree
[['Lone Tree city, Colorado', '14653', '08', '45955']]
total population: %d 14653
City = Alamosa
[['Alamosa city, Colorado', '9997', '08', '01090']]
total population: %d 9997
City = Gunnison
[['Gunnison city, Colorado', '6594', '08', '33640']]
total population: %d 6594
City = Durango
[['Durango city, Colorado', '18985', '08', '22035']]
total population: %d 18985
City = Pueblo
[['Pueblo city, Colorado', '111750', '08', '62000']]
total population: %d 111750
City = USAF Academy
[]
total population: %d 0
City = Golden
[['Golden city, Colorado', '21254', '08', '30835']]
total population: %d 21254
City = Lakewood
[['Lakewood city, Colorado', '156798', '08', '43000']]
total population: %d 156798
City = Greenwood Village
[['Greenwood Village city, Colorado', '15801', '08', '33035']]
total population: %d 15801
City = Grand Junction
[['Grand Junction city, Colorado', '63374', '08', '31660']]
total population: %d 63374
City = Greeley
[['Greeley city, Colorado', '107348', '08', '32155']]
total population: %d 107348
City = Denver
[['Denver city, Colorado', '716492', '08', '20000']]
total population: %d 716492
City = Colorado Springs
[['Colorado Springs city, Colorado', '472688', '08', '16000']]
total population: %d 472688
City = Fort Collins
[['Fort Collins city, Colorado', '167830', '08', '27425']]
total population: %d 167830
City = Boulder
[['Boulder city, Colorado', '107353', '08', '07850']]
total population: %d 107353
State = CT
City = Cromwell
[]
total population: %d 0
City = Groton
[['Groton city, Connecticut', '9012', '09', '34180']]
total population: %d 9012
City = Stamford
[['Stamford city, Connecticut', '129775', '09', '73000']]
total population: %d 129775
City = New London
[['New London city, Connecticut', '26939', '09', '52280']]
total population: %d 26939
City = Hartford
[['Hartford city, Connecticut', '122587', '09', '37000']]
total population: %d 122587
City = Bridgeport
[['Bridgeport city, Connecticut', '144900', '09', '08000']]
total population: %d 144900
City = Willimantic
[]
total population: %d 0
City = West Hartford
[]
total population: %d 0
City = Danbury
[['Danbury city, Connecticut', '84730', '09', '18430']]
total population: %d 84730
City = West Haven
[['West Haven city, Connecticut', '54879', '09', '82800']]
total population: %d 54879
City = Fairfield
[]
total population: %d 0
City = Hamden
[]
total population: %d 0
City = New Haven
[['New Haven city, Connecticut', '130418', '09', '52000']]
total population: %d 130418
City = Waterbury
[['Waterbury city, Connecticut', '108093', '09', '80000']]
total population: %d 108093
City = New Britain
[['New Britain city, Connecticut', '72453', '09', '50370']]
total population: %d 72453
City = Storrs
[]
total population: %d 0
State = DE
City = Dover
[['Dover city, Delaware', '38079', '10', '21200']]
total population: %d 38079
City = New Castle
[['New Castle city, Delaware', '5529', '10', '50800']]
total population: %d 5529
City = Newark
[['Newark city, Delaware', '33673', '10', '50670']]
total population: %d 33673
State = DC
City = Washington
[['Washington city, District of Columbia', '702455', '11', '50000']]
total population: %d 702455
State = FL
City = Miami Beach
[['Miami Beach city, Florida', '91718', '12', '45025'], ['North Miami Beach city, Florida', '45887', '12', '49475']]
total population: %d 137605
City = Kissimmee
[['Kissimmee city, Florida', '73597', '12', '36950']]
total population: %d 73597
City = Trinity
[]
total population: %d 0
City = Hobe Sound
[]
total population: %d 0
City = Lake Mary
[['Lake Mary city, Florida', '17283', '12', '38425']]
total population: %d 17283
City = Largo
[['Largo city, Florida', '84996', '12', '39425']]
total population: %d 84996
City = Leesburg
[['Leesburg city, Florida', '23163', '12', '39875']]
total population: %d 23163
City = Graceville
[['Graceville city, Florida', '2200', '12', '27000']]
total population: %d 2200
City = Miramar
[['Miramar city, Florida', '140823', '12', '45975']]
total population: %d 140823
City = Doral
[['Doral city, Florida', '61824', '12', '17935']]
total population: %d 61824
City = Royal Palm Beach
[]
total population: %d 0
City = Lake Wales
[['Lake Wales city, Florida', '16577', '12', '38950']]
total population: %d 16577
City = Ave Maria
[]
total population: %d 0
City = Naples
[['Naples city, Florida', '22039', '12', '47625']]
total population: %d 22039
City = Miami Gardens
[['Miami Gardens city, Florida', '113069', '12', '45060']]
total population: %d 113069
City = North Miami
[['North Miami city, Florida', '62996', '12', '49450']]
total population: %d 62996
City = Sarasota
[['Sarasota city, Florida', '57738', '12', '64175']]
total population: %d 57738
City = Saint Petersburg
[]
total population: %d 0
City = West Palm Beach
[['West Palm Beach city, Florida', '111398', '12', '76600']]
total population: %d 111398
City = Saint Augustine
[]
total population: %d 0
City = DeLand
[['DeLand city, Florida', '33532', '12', '16875']]
total population: %d 33532
City = Melbourne
[['Melbourne city, Florida', '82826', '12', '43975'], ['West Melbourne city, Florida', '23372', '12', '76500']]
total population: %d 106198
City = St. Petersburg
[['St. Petersburg city, Florida', '265098', '12', '63000']]
total population: %d 265098
City = Fort Lauderdale
[['Fort Lauderdale city, Florida', '182595', '12', '24000']]
total population: %d 182595
City = Lakeland
[['Lakeland city, Florida', '110516', '12', '38250']]
total population: %d 110516
City = Ocala
[['Ocala city, Florida', '60429', '12', '50750']]
total population: %d 60429
City = Saint Leo
[]
total population: %d 0
City = Pensacola
[['Pensacola city, Florida', '52713', '12', '55925']]
total population: %d 52713
City = Daytona Beach
[['Daytona Beach city, Florida', '68866', '12', '16525']]
total population: %d 68866
City = Coral Gables
[['Coral Gables city, Florida', '50999', '12', '14250']]
total population: %d 50999
City = Fort Myers
[['Fort Myers city, Florida', '82254', '12', '24125']]
total population: %d 82254
City = Jacksonville
[['Jacksonville city, Florida', '903889', '12', '35000']]
total population: %d 903889
City = Winter Park
[['Winter Park city, Florida', '31059', '12', '78300']]
total population: %d 31059
City = Boca Raton
[['Boca Raton city, Florida', '99244', '12', '07300']]
total population: %d 99244
City = Tampa
[['Tampa city, Florida', '392890', '12', '71000']]
total population: %d 392890
City = Tallahassee
[['Tallahassee city, Florida', '193551', '12', '70600']]
total population: %d 193551
City = Gainesville
[['Gainesville city, Florida', '133857', '12', '25175']]
total population: %d 133857
City = Miami
[['Miami city, Florida', '470914', '12', '45000'], ['North Miami city, Florida', '62996', '12', '49450'], ['South Miami city, Florida', '12219', '12', '67550'], ['West Miami city, Florida', '8052', '12', '76525']]
total population: %d 554181
City = Orlando
[['Orlando city, Florida', '285713', '12', '53000']]
total population: %d 285713
State = GA
City = Lithonia
[['Lithonia city, Georgia', '2352', '13', '46860']]
total population: %d 2352
City = Toccoa Falls
[]
total population: %d 0
City = Lagrange
[]
total population: %d 0
City = Lookout Mountain
[['Lookout Mountain city, Georgia', '1566', '13', '47336']]
total population: %d 1566
City = Young Harris
[['Young Harris city, Georgia', '1654', '13', '84960']]
total population: %d 1654
City = Thomasville
[['Thomasville city, Georgia', '18537', '13', '76224']]
total population: %d 18537
City = West Point
[['West Point city, Georgia', '3743', '13', '82132']]
total population: %d 3743
City = Rome
[['Rome city, Georgia', '36634', '13', '66668']]
total population: %d 36634
City = Demorest
[['Demorest city, Georgia', '2146', '13', '22304']]
total population: %d 2146
City = Waleska
[['Waleska city, Georgia', '963', '13', '79948']]
total population: %d 963
City = Mount Berry
[]
total population: %d 0
City = Fort Valley
[['Fort Valley city, Georgia', '8962', '13', '31096']]
total population: %d 8962
City = Americus
[['Americus city, Georgia', '15309', '13', '02116']]
total population: %d 15309
City = Dalton
[['Dalton city, Georgia', '33500', '13', '21380']]
total population: %d 33500
City = Augusta
[]
total population: %d 0
City = Morrow
[['Morrow city, Georgia', '7494', '13', '53004']]
total population: %d 7494
City = Milledgeville
[['Milledgeville city, Georgia', '18614', '13', '51492']]
total population: %d 18614
City = Macon
[]
total population: %d 0
City = Valdosta
[['Valdosta city, Georgia', '56426', '13', '78800']]
total population: %d 56426
City = Carrollton
[['Carrollton city, Georgia', '26443', '13', '13492']]
total population: %d 26443
City = Savannah
[['Savannah city, Georgia', '145862', '13', '69000']]
total population: %d 145862
City = Lawrenceville
[['Lawrenceville city, Georgia', '29795', '13', '45488']]
total population: %d 29795
City = Statesboro
[['Statesboro city, Georgia', '31667', '13', '73256']]
total population: %d 31667
City = Dahlonega
[['Dahlonega city, Georgia', '6884', '13', '21240']]
total population: %d 6884
City = Atlanta
[['Atlanta city, Georgia', '498044', '13', '04000']]
total population: %d 498044
City = Athens
[]
total population: %d 0
City = Kennesaw
[['Kennesaw city, Georgia', '34172', '13', '43192']]
total population: %d 34172
State = HI
City = Kapolei
[]
total population: %d 0
City = Laie
[]
total population: %d 0
City = Hilo
[]
total population: %d 0
City = Honolulu
[]
total population: %d 0
State = ID
City = Nampa
[['Nampa city, Idaho', '96252', '16', '56260']]
total population: %d 96252
City = Lewiston
[['Lewiston city, Idaho', '32817', '16', '46540']]
total population: %d 32817
City = Moscow
[['Moscow city, Idaho', '25766', '16', '54550']]
total population: %d 25766
City = Pocatello
[['Pocatello city, Idaho', '56266', '16', '64090']]
total population: %d 56266
City = Boise
[]
total population: %d 0
City = Rexburg
[['Rexburg city, Idaho', '28687', '16', '67420']]
total population: %d 28687
State = IL
City = Lombard
[]
total population: %d 0
City = West Frankfort
[['West Frankfort city, Illinois', '7882', '17', '80333']]
total population: %d 7882
City = Skokie
[]
total population: %d 0
City = Elsah
[]
total population: %d 0
City = Carlinville
[['Carlinville city, Illinois', '5543', '17', '11202']]
total population: %d 5543
City = Eureka
[['Eureka city, Illinois', '5282', '17', '24543']]
total population: %d 5282
City = Deerfield
[]
total population: %d 0
City = Quincy
[['Quincy city, Illinois', '40042', '17', '62367']]
total population: %d 40042
City = Rockford
[['Rockford city, Illinois', '146526', '17', '65000']]
total population: %d 146526
City = Palos Heights
[['Palos Heights city, Illinois', '12626', '17', '57381']]
total population: %d 12626
City = Elgin
[['Elgin city, Illinois', '111683', '17', '23074']]
total population: %d 111683
City = Galesburg
[['Galesburg city, Illinois', '30432', '17', '28326']]
total population: %d 30432
City = Lake Forest
[['Lake Forest city, Illinois', '19544', '17', '41105']]
total population: %d 19544
City = Joliet
[['Joliet city, Illinois', '148099', '17', '38570']]
total population: %d 148099
City = Decatur
[['Decatur city, Illinois', '71290', '17', '18823']]
total population: %d 71290
City = Lebanon
[['Lebanon city, Illinois', '4274', '17', '42496']]
total population: %d 4274
City = River Forest
[]
total population: %d 0
City = Wheaton
[['Wheaton city, Illinois', '53150', '17', '81048']]
total population: %d 53150
City = Rock Island
[['Rock Island city, Illinois', '37678', '17', '65078']]
total population: %d 37678
City = Naperville
[['Naperville city, Illinois', '148304', '17', '51622']]
total population: %d 148304
City = Elmhurst
[['Elmhurst city, Illinois', '46558', '17', '23620']]
total population: %d 46558
City = Lisle
[]
total population: %d 0
City = Bourbonnais
[]
total population: %d 0
City = Aurora
[['Aurora city, Illinois', '199602', '17', '03012']]
total population: %d 199602
City = Romeoville
[]
total population: %d 0
City = Peoria
[['East Peoria city, Illinois', '22561', '17', '22164'], ['Peoria city, Illinois', '111388', '17', '59000'], ['West Peoria city, Illinois', '4508', '17', '80736']]
total population: %d 138457
City = Macomb
[['Macomb city, Illinois', '17559', '17', '45889']]
total population: %d 17559
City = Evanston
[['Evanston city, Illinois', '74106', '17', '24582']]
total population: %d 74106
City = Schaumburg
[]
total population: %d 0
City = Carbondale
[['Carbondale city, Illinois', '25376', '17', '11163']]
total population: %d 25376
City = Edwardsville
[['Edwardsville city, Illinois', '24969', '17', '22697']]
total population: %d 24969
City = Dekalb
[]
total population: %d 0
City = Addison
[]
total population: %d 0
City = Normal
[['Normal town, Illinois', '54742', '17', '53234']]
total population: %d 54742
City = Chicago
[['Chicago city, Illinois', '2705994', '17', '14000'], ['North Chicago city, Illinois', '29770', '17', '53559'], ['West Chicago city, Illinois', '27045', '17', '80060']]
total population: %d 2762809
City = Champaign
[['Champaign city, Illinois', '88029', '17', '12385']]
total population: %d 88029
State = IN
City = Merrillville
[['Merrillville town, Indiana', '34750', '18', '48528']]
total population: %d 34750
City = Jeffersonville
[['Jeffersonville city, Indiana', '47432', '18', '38358']]
total population: %d 47432
City = Greendale
[['Greendale city, Indiana', '4373', '18', '29448']]
total population: %d 4373
City = Oakland City
[['Oakland City city, Indiana', '2393', '18', '55710']]
total population: %d 2393
City = Whiting
[['Whiting city, Indiana', '4782', '18', '84122']]
total population: %d 4782
City = Saint Mary of the Woods
[]
total population: %d 0
City = Goshen
[['Goshen city, Indiana', '33566', '18', '28386']]
total population: %d 33566
City = Crawfordsville
[['Crawfordsville city, Indiana', '16114', '18', '15742']]
total population: %d 16114
City = Franklin
[['Franklin city, Indiana', '25248', '18', '25450']]
total population: %d 25248
City = Mishawaka
[['Mishawaka city, Indiana', '49931', '18', '49932']]
total population: %d 49931
City = North Manchester
[['North Manchester town, Indiana', '5805', '18', '54954']]
total population: %d 5805
City = Winona Lake
[['Winona Lake town, Indiana', '4926', '18', '84950']]
total population: %d 4926
City = Upland
[['Upland town, Indiana', '3729', '18', '77966']]
total population: %d 3729
City = Angola
[['Angola city, Indiana', '8702', '18', '01666']]
total population: %d 8702
City = Greencastle
[['Greencastle city, Indiana', '10530', '18', '29358']]
total population: %d 10530
City = Kokomo
[['Kokomo city, Indiana', '57869', '18', '40392']]
total population: %d 57869
City = Valparaiso
[['Valparaiso city, Indiana', '33729', '18', '78326']]
total population: %d 33729
City = Gary
[['Gary city, Indiana', '75282', '18', '27000']]
total population: %d 75282
City = New Albany
[['New Albany city, Indiana', '36604', '18', '52326']]
total population: %d 36604
City = South Bend
[['South Bend city, Indiana', '101860', '18', '71000']]
total population: %d 101860
City = Marion
[['Marion city, Indiana', '28047', '18', '46908']]
total population: %d 28047
City = Evansville
[['Evansville city, Indiana', '117963', '18', '22000']]
total population: %d 117963
City = Fort Wayne
[['Fort Wayne city, Indiana', '267633', '18', '25000']]
total population: %d 267633
City = Notre Dame
[]
total population: %d 0
City = Terre Haute
[['Terre Haute city, Indiana', '60753', '18', '75428'], ['West Terre Haute town, Indiana', '2211', '18', '83384']]
total population: %d 62964
City = Muncie
[['Muncie city, Indiana', '68529', '18', '51876']]
total population: %d 68529
City = Indianapolis
[['Indianapolis city (balance), Indiana', '867125', '18', '36003']]
total population: %d 867125
City = West Lafayette
[['West Lafayette city, Indiana', '48308', '18', '82862']]
total population: %d 48308
City = Bloomington
[['Bloomington city, Indiana', '84981', '18', '05860']]
total population: %d 84981
State = IA
City = Epworth
[['Epworth city, Iowa', '1952', '19', '25725']]
total population: %d 1952
City = Ankeny
[['Ankeny city, Iowa', '65284', '19', '02305']]
total population: %d 65284
City = Waterloo
[['Waterloo city, Iowa', '67798', '19', '82425']]
total population: %d 67798
City = Orange City
[['Orange City city, Iowa', '6107', '19', '59475']]
total population: %d 6107
City = Oskaloosa
[['Oskaloosa city, Iowa', '11426', '19', '59925']]
total population: %d 11426
City = Pella
[['Pella city, Iowa', '10335', '19', '62040']]
total population: %d 10335
City = Lamoni
[['Lamoni city, Iowa', '2252', '19', '42960']]
total population: %d 2252
City = Sioux City
[['Sioux City city, Iowa', '82396', '19', '73335']]
total population: %d 82396
City = Sioux Center
[['Sioux Center city, Iowa', '7614', '19', '73290']]
total population: %d 7614
City = Indianola
[['Indianola city, Iowa', '16071', '19', '38280']]
total population: %d 16071
City = Waverly
[['Waverly city, Iowa', '10153', '19', '82875']]
total population: %d 10153
City = Cedar Rapids
[['Cedar Rapids city, Iowa', '133174', '19', '12000']]
total population: %d 133174
City = Grinnell
[['Grinnell city, Iowa', '9320', '19', '33105']]
total population: %d 9320
City = Storm Lake
[['Storm Lake city, Iowa', '10458', '19', '75630']]
total population: %d 10458
City = Dubuque
[['Dubuque city, Iowa', '57941', '19', '22395']]
total population: %d 57941
City = Decorah
[['Decorah city, Iowa', '7594', '19', '19405']]
total population: %d 7594
City = Forest City
[['Forest City city, Iowa', '4047', '19', '28380']]
total population: %d 4047
City = Des Moines
[['Des Moines city, Iowa', '216853', '19', '21000'], ['West Des Moines city, Iowa', '66641', '19', '83910']]
total population: %d 283494
City = Fayette
[['Fayette city, Iowa', '1374', '19', '27165']]
total population: %d 1374
City = Cedar Falls
[['Cedar Falls city, Iowa', '41048', '19', '11755']]
total population: %d 41048
City = Iowa City
[['Iowa City city, Iowa', '76290', '19', '38595']]
total population: %d 76290
City = Davenport
[['Davenport city, Iowa', '102085', '19', '19000']]
total population: %d 102085
City = Ames
[['Ames city, Iowa', '67154', '19', '01855']]
total population: %d 67154
State = KS
City = Haviland
[['Haviland city, Kansas', '683', '20', '30825']]
total population: %d 683
City = Overland Park
[['Overland Park city, Kansas', '192536', '20', '53775']]
total population: %d 192536
City = North Newton
[['North Newton city, Kansas', '1754', '20', '51225']]
total population: %d 1754
City = Sterling
[['Sterling city, Kansas', '2210', '20', '68200']]
total population: %d 2210
City = Hillsboro
[['Hillsboro city, Kansas', '2834', '20', '32275']]
total population: %d 2834
City = Ottawa
[['Ottawa city, Kansas', '12267', '20', '53550']]
total population: %d 12267
City = Salina
[['Salina city, Kansas', '46716', '20', '62700']]
total population: %d 46716
City = Lindsborg
[['Lindsborg city, Kansas', '3288', '20', '41375']]
total population: %d 3288
City = Leavenworth
[['Leavenworth city, Kansas', '36062', '20', '39000']]
total population: %d 36062
City = McPherson
[['McPherson city, Kansas', '13077', '20', '43950']]
total population: %d 13077
City = Winfield
[['Winfield city, Kansas', '12057', '20', '79950']]
total population: %d 12057
City = Olathe
[['Olathe city, Kansas', '139605', '20', '52575']]
total population: %d 139605
City = Baldwin City
[['Baldwin City city, Kansas', '4691', '20', '03900']]
total population: %d 4691
City = Atchison
[['Atchison city, Kansas', '10560', '20', '02900']]
total population: %d 10560
City = Emporia
[['Emporia city, Kansas', '24765', '20', '21275']]
total population: %d 24765
City = Topeka
[['Topeka city, Kansas', '125904', '20', '71000']]
total population: %d 125904
City = Pittsburg
[['Pittsburg city, Kansas', '20178', '20', '56025']]
total population: %d 20178
City = Wichita
[['Wichita city, Kansas', '389255', '20', '79000']]
total population: %d 389255
City = Hays
[['Hays city, Kansas', '20852', '20', '31100']]
total population: %d 20852
City = Manhattan
[['Manhattan city, Kansas', '54959', '20', '44250']]
total population: %d 54959
City = Lawrence
[['Lawrence city, Kansas', '97286', '20', '38900']]
total population: %d 97286
State = KY
City = Grayson
[['Grayson city, Kentucky', '3944', '21', '32572']]
total population: %d 3944
City = Pippa Passes
[['Pippa Passes city, Kentucky', '663', '21', '61374']]
total population: %d 663
City = Owensboro
[['Owensboro city, Kentucky', '59809', '21', '58620']]
total population: %d 59809
City = Midway
[['Midway city, Kentucky', '1801', '21', '52140']]
total population: %d 1801
City = Pikeville
[['Pikeville city, Kentucky', '6638', '21', '60852']]
total population: %d 6638
City = Frankfort
[['Frankfort city, Kentucky', '27679', '21', '28900']]
total population: %d 27679
City = Crestview Hills
[['Crestview Hills city, Kentucky', '3280', '21', '18442']]
total population: %d 3280
City = Danville
[['Danville city, Kentucky', '16804', '21', '19882']]
total population: %d 16804
City = Wilmore
[['Wilmore city, Kentucky', '6423', '21', '83550']]
total population: %d 6423
City = Campbellsville
[['Campbellsville city, Kentucky', '11411', '21', '12160']]
total population: %d 11411
City = Morehead
[['Morehead city, Kentucky', '7634', '21', '53418']]
total population: %d 7634
City = Murray
[['Murray city, Kentucky', '19348', '21', '54642']]
total population: %d 19348
City = Highland Heights
[['Highland Heights city, Kentucky', '7103', '21', '36604']]
total population: %d 7103
City = Bowling Green
[['Bowling Green city, Kentucky', '68401', '21', '08902']]
total population: %d 68401
City = Louisville
[]
total population: %d 0
City = Lexington
[]
total population: %d 0
State = LA
City = St. Benedict
[]
total population: %d 0
City = Pineville
[['Pineville city, Louisiana', '14290', '22', '60530']]
total population: %d 14290
City = Shreveport
[['Shreveport city, Louisiana', '188987', '22', '70000']]
total population: %d 188987
City = Alexandria
[['Alexandria city, Louisiana', '46776', '22', '00975']]
total population: %d 46776
City = Grambling
[['Grambling city, Louisiana', '5168', '22', '30515']]
total population: %d 5168
City = Thibodaux
[['Thibodaux city, Louisiana', '14576', '22', '75425']]
total population: %d 14576
City = Lake Charles
[['Lake Charles city, Louisiana', '78001', '22', '41155']]
total population: %d 78001
City = Monroe
[['Monroe city, Louisiana', '47877', '22', '51410'], ['West Monroe city, Louisiana', '12431', '22', '80955']]
total population: %d 60308
City = New Orleans
[['New Orleans city, Louisiana', '391006', '22', '55000']]
total population: %d 391006
City = Natchitoches
[['Natchitoches city, Louisiana', '17831', '22', '53545']]
total population: %d 17831
City = Ruston
[['Ruston city, Louisiana', '22123', '22', '66655']]
total population: %d 22123
City = Hammond
[['Hammond city, Louisiana', '20786', '22', '32755']]
total population: %d 20786
City = Lafayette
[['Lafayette city, Louisiana', '126143', '22', '40735']]
total population: %d 126143
City = Baton Rouge
[['Baton Rouge city, Louisiana', '221599', '22', '05000']]
total population: %d 221599
State = ME
City = Bar Harbor
[]
total population: %d 0
City = Machias
[]
total population: %d 0
City = Unity
[]
total population: %d 0
City = Presque Isle
[['Presque Isle city, Maine', '8998', '23', '60825']]
total population: %d 8998
City = Castine
[]
total population: %d 0
City = Fort Kent
[]
total population: %d 0
City = Standish
[]
total population: %d 0
City = Farmington
[]
total population: %d 0
City = Brunswick
[]
total population: %d 0
City = Waterville
[['Waterville city, Maine', '16646', '23', '80740']]
total population: %d 16646
City = Biddeford
[['Biddeford city, Maine', '21514', '23', '04860']]
total population: %d 21514
City = Bangor
[['Bangor city, Maine', '31997', '23', '02795']]
total population: %d 31997
City = Orono
[]
total population: %d 0
State = MD
City = Silver  Spring
[]
total population: %d 0
City = Capitol Heights
[['Capitol Heights town, Maryland', '4524', '24', '13000']]
total population: %d 4524
City = Laurel
[['Laurel city, Maryland', '25723', '24', '45900']]
total population: %d 25723
City = Hagerstown
[['Hagerstown city, Maryland', '40205', '24', '36075']]
total population: %d 40205
City = Takoma Park
[['Takoma Park city, Maryland', '17768', '24', '76650']]
total population: %d 17768
City = Frederick
[['Frederick city, Maryland', '72146', '24', '30325']]
total population: %d 72146
City = Chestertown
[['Chestertown town, Maryland', '5054', '24', '16225']]
total population: %d 5054
City = St. Mary's City
[]
total population: %d 0
City = Westminster
[['Westminster city, Maryland', '18648', '24', '83100']]
total population: %d 18648
City = Emmitsburg
[['Emmitsburg town, Maryland', '3137', '24', '26200']]
total population: %d 3137
City = Suitland
[]
total population: %d 0
City = Princess Anne
[['Princess Anne town, Maryland', '3523', '24', '64000']]
total population: %d 3523
City = Stevenson
[]
total population: %d 0
City = Frostburg
[['Frostburg city, Maryland', '8564', '24', '30900']]
total population: %d 8564
City = Annapolis
[['Annapolis city, Maryland', '39174', '24', '01600']]
total population: %d 39174
City = Bowie
[['Bowie city, Maryland', '58682', '24', '08775']]
total population: %d 58682
City = Salisbury
[['Salisbury city, Maryland', '32809', '24', '69925']]
total population: %d 32809
City = Baltimore
[['Baltimore city, Maryland', '602495', '24', '04000']]
total population: %d 602495
City = Towson
[]
total population: %d 0
City = College Park
[['College Park city, Maryland', '32196', '24', '18750']]
total population: %d 32196
City = Adelphi
[]
total population: %d 0
State = MA
City = Braintree
[]
total population: %d 0
City = Brighton
[]
total population: %d 0
City = Falmouth
[]
total population: %d 0
City = Haverhill
[['Haverhill city, Massachusetts', '64041', '25', '29405']]
total population: %d 64041
City = Needham
[]
total population: %d 0
City = Brookline
[]
total population: %d 0
City = Weston
[]
total population: %d 0
City = Paxton
[]
total population: %d 0
City = Chicopee
[['Chicopee city, Massachusetts', '55582', '25', '13660']]
total population: %d 55582
City = Dudley
[]
total population: %d 0
City = North Adams
[['North Adams city, Massachusetts', '12904', '25', '46225']]
total population: %d 12904
City = Wenham
[]
total population: %d 0
City = Buzzards Bay
[]
total population: %d 0
City = Newton
[['Newton city, Massachusetts', '88904', '25', '45560']]
total population: %d 88904
City = Longmeadow
[]
total population: %d 0
City = Williamstown
[]
total population: %d 0
City = South Hadley
[]
total population: %d 0
City = Babson Park
[]
total population: %d 0
City = Wellesley
[]
total population: %d 0
City = Northampton
[['Northampton city, Massachusetts', '28726', '25', '46330']]
total population: %d 28726
City = Milton
[]
total population: %d 0
City = Beverly
[['Beverly city, Massachusetts', '42312', '25', '05595']]
total population: %d 42312
City = North Andover
[]
total population: %d 0
City = Framingham
[['Framingham city, Massachusetts', '73123', '25', '24960']]
total population: %d 73123
City = Fitchburg
[['Fitchburg city, Massachusetts', '40882', '25', '23875']]
total population: %d 40882
City = Waltham
[['Waltham city, Massachusetts', '62962', '25', '72600']]
total population: %d 62962
City = Worcester
[['Worcester city, Massachusetts', '185877', '25', '82000']]
total population: %d 185877
City = Westfield
[['Westfield city, Massachusetts', '41680', '25', '76030']]
total population: %d 41680
City = Medford
[['Medford city, Massachusetts', '57765', '25', '39835']]
total population: %d 57765
City = North Dartmouth
[]
total population: %d 0
City = Salem
[['Salem city, Massachusetts', '43559', '25', '59105']]
total population: %d 43559
City = Cambridge
[['Cambridge city, Massachusetts', '118977', '25', '11000']]
total population: %d 118977
City = Bridgewater
[]
total population: %d 0
City = Chestnut Hill
[]
total population: %d 0
City = Lowell
[['Lowell city, Massachusetts', '111670', '25', '37000']]
total population: %d 111670
City = Boston
[['Boston city, Massachusetts', '694583', '25', '07000']]
total population: %d 694583
City = Amherst
[]
total population: %d 0
State = MI
City = Oak Park
[['Oak Park city, Michigan', '29628', '26', '59920']]
total population: %d 29628
City = Lansing
[['East Lansing city, Michigan', '47988', '26', '24120'], ['Lansing city, Michigan', '118427', '26', '46000']]
total population: %d 166415
City = Hancock
[['Hancock city, Michigan', '4549', '26', '36300']]
total population: %d 4549
City = Howell
[['Howell city, Michigan', '9618', '26', '39540']]
total population: %d 9618
City = Novi
[['Novi city, Michigan', '60951', '26', '59440']]
total population: %d 60951
City = Olivet
[['Olivet city, Michigan', '1827', '26', '60580']]
total population: %d 1827
City = Alma
[['Alma city, Michigan', '8920', '26', '01540']]
total population: %d 8920
City = Berrien Springs
[]
total population: %d 0
City = Hillsdale
[['Hillsdale city, Michigan', '8049', '26', '38460']]
total population: %d 8049
City = Albion
[['Albion city, Michigan', '8477', '26', '00980']]
total population: %d 8477
City = Spring Arbor
[]
total population: %d 0
City = Sault Ste Marie
[]
total population: %d 0
City = Adrian
[['Adrian city, Michigan', '20423', '26', '00440']]
total population: %d 20423
City = Southfield
[['Southfield city, Michigan', '73158', '26', '74900']]
total population: %d 73158
City = Livonia
[['Livonia city, Michigan', '93971', '26', '49000']]
total population: %d 93971
City = Midland
[['Midland city, Michigan', '41800', '26', '53780']]
total population: %d 41800
City = Holland
[['Holland city, Michigan', '33327', '26', '38640']]
total population: %d 33327
City = Grand Rapids
[['East Grand Rapids city, Michigan', '11884', '26', '23980'], ['Grand Rapids city, Michigan', '200217', '26', '34000']]
total population: %d 212101
City = Flint
[['Flint city, Michigan', '95943', '26', '29000']]
total population: %d 95943
City = Houghton
[['Houghton city, Michigan', '7993', '26', '39360']]
total population: %d 7993
City = Marquette
[['Marquette city, Michigan', '20680', '26', '51900']]
total population: %d 20680
City = Dearborn
[['Dearborn city, Michigan', '94333', '26', '21000']]
total population: %d 94333
City = University Center
[]
total population: %d 0
City = Big Rapids
[['Big Rapids city, Michigan', '10395', '26', '08300']]
total population: %d 10395
City = Rochester Hills
[['Rochester Hills city, Michigan', '74696', '26', '69035']]
total population: %d 74696
City = Ypsilanti
[['Ypsilanti city, Michigan', '20995', '26', '89140']]
total population: %d 20995
City = Detroit
[['Detroit city, Michigan', '672662', '26', '22000']]
total population: %d 672662
City = Mount Pleasant
[['Mount Pleasant city, Michigan', '25388', '26', '56020']]
total population: %d 25388
City = Kalamazoo
[['Kalamazoo city, Michigan', '76545', '26', '42160']]
total population: %d 76545
City = Allendale
[]
total population: %d 0
City = Ann Arbor
[['Ann Arbor city, Michigan', '121890', '26', '03000']]
total population: %d 121890
City = East Lansing
[['East Lansing city, Michigan', '47988', '26', '24120']]
total population: %d 47988
State = MN
City = New Ulm
[['New Ulm city, Minnesota', '13237', '27', '46042']]
total population: %d 13237
City = Saint Bonifacius
[]
total population: %d 0
City = Morris
[['Morris city, Minnesota', '5351', '27', '44242']]
total population: %d 5351
City = Collegeville
[]
total population: %d 0
City = Crookston
[['Crookston city, Minnesota', '7806', '27', '13870']]
total population: %d 7806
City = Marshall
[['Marshall city, Minnesota', '13530', '27', '40688']]
total population: %d 13530
City = Saint Peter
[]
total population: %d 0
City = Bemidji
[['Bemidji city, Minnesota', '15404', '27', '05068']]
total population: %d 15404
City = Moorhead
[['Moorhead city, Minnesota', '43349', '27', '43864']]
total population: %d 43349
City = Saint Paul
[]
total population: %d 0
City = Winona
[['Winona city, Minnesota', '26813', '27', '71032']]
total population: %d 26813
City = Duluth
[['Duluth city, Minnesota', '85884', '27', '17000']]
total population: %d 85884
City = Saint Cloud
[]
total population: %d 0
City = Mankato
[['Mankato city, Minnesota', '42610', '27', '39878'], ['North Mankato city, Minnesota', '13914', '27', '47068']]
total population: %d 56524
City = Minneapolis
[['Minneapolis city, Minnesota', '425403', '27', '43000']]
total population: %d 425403
State = MS
City = Blue Mountain
[['Blue Mountain town, Mississippi', '982', '28', '07060']]
total population: %d 982
City = Tougaloo
[]
total population: %d 0
City = Holly Springs
[['Holly Springs city, Mississippi', '7652', '28', '33100']]
total population: %d 7652
City = Itta Bena
[['Itta Bena city, Mississippi', '1845', '28', '35260']]
total population: %d 1845
City = Clinton
[['Clinton city, Mississippi', '25179', '28', '14420']]
total population: %d 25179
City = Alcorn State
[]
total population: %d 0
City = Jackson
[['Jackson city, Mississippi', '164422', '28', '36000']]
total population: %d 164422
City = Hattiesburg
[['Hattiesburg city, Mississippi', '45951', '28', '31020']]
total population: %d 45951
City = Mississippi State
[]
total population: %d 0
City = University
[]
total population: %d 0
State = MO
City = Conception
[]
total population: %d 0
City = Florissant
[['Florissant city, Missouri', '51272', '29', '24778']]
total population: %d 51272
City = Chesterfield
[['Chesterfield city, Missouri', '47644', '29', '13600']]
total population: %d 47644
City = Moberly
[['Moberly city, Missouri', '13610', '29', '49034']]
total population: %d 13610
City = St. Louis
[['Lake St. Louis city, Missouri', '16230', '29', '40043'], ['St. Louis city, Missouri', '302838', '29', '65000']]
total population: %d 319068
City = Hannibal
[['Hannibal city, Missouri', '17533', '29', '30214']]
total population: %d 17533
City = Fulton
[['Fulton city, Missouri', '12635', '29', '26182']]
total population: %d 12635
City = Liberty
[['Liberty city, Missouri', '31779', '29', '42032']]
total population: %d 31779
City = Point Lookout
[]
total population: %d 0
City = Jefferson City
[['Jefferson City city, Missouri', '42838', '29', '37000']]
total population: %d 42838
City = Bolivar
[['Bolivar city, Missouri', '11038', '29', '06976']]
total population: %d 11038
City = Saint Joseph
[]
total population: %d 0
City = Maryville
[['Maryville city, Missouri', '11687', '29', '46640']]
total population: %d 11687
City = Kirksville
[['Kirksville city, Missouri', '17566', '29', '39026']]
total population: %d 17566
City = Joplin
[['Joplin city, Missouri', '50657', '29', '37592']]
total population: %d 50657
City = Saint Charles
[]
total population: %d 0
City = Rolla
[['Rolla city, Missouri', '20390', '29', '62912']]
total population: %d 20390
City = Saint Louis
[]
total population: %d 0
City = Kansas City
[['Kansas City city, Missouri', '491918', '29', '38000'], ['North Kansas City city, Missouri', '4529', '29', '53102']]
total population: %d 496447
City = Warrensburg
[['Warrensburg city, Missouri', '20262', '29', '77092']]
total population: %d 20262
City = Cape Girardeau
[['Cape Girardeau city, Missouri', '39853', '29', '11242']]
total population: %d 39853
City = Parkville
[['Parkville city, Missouri', '6949', '29', '56288']]
total population: %d 6949
City = Springfield
[['Springfield city, Missouri', '168122', '29', '70000']]
total population: %d 168122
State = MT
City = Great Falls
[['Great Falls city, Montana', '58701', '30', '32800']]
total population: %d 58701
City = Havre
[['Havre city, Montana', '9715', '30', '35050']]
total population: %d 9715
City = Helena
[['East Helena city, Montana', '2089', '30', '23125'], ['Helena city, Montana', '32315', '30', '35600']]
total population: %d 34404
City = Dillon
[['Dillon city, Montana', '4261', '30', '20800']]
total population: %d 4261
City = Butte
[]
total population: %d 0
City = Billings
[['Billings city, Montana', '109550', '30', '06550']]
total population: %d 109550
City = Missoula
[['Missoula city, Montana', '74428', '30', '50200']]
total population: %d 74428
City = Bozeman
[['Bozeman city, Montana', '48532', '30', '08950']]
total population: %d 48532
State = NE
City = Gering
[['Gering city, Nebraska', '8225', '31', '18580']]
total population: %d 8225
City = Papillion
[['Papillion city, Nebraska', '20530', '31', '38295']]
total population: %d 20530
City = Crete
[['Crete city, Nebraska', '7082', '31', '11370']]
total population: %d 7082
City = Hastings
[['Hastings city, Nebraska', '24822', '31', '21415']]
total population: %d 24822
City = Fremont
[['Fremont city, Nebraska', '26509', '31', '17670']]
total population: %d 26509
City = Seward
[['Seward city, Nebraska', '7220', '31', '44420']]
total population: %d 7220
City = Peru
[['Peru city, Nebraska', '758', '31', '38960']]
total population: %d 758
City = Chadron
[['Chadron city, Nebraska', '5488', '31', '08605']]
total population: %d 5488
City = Kearney
[['Kearney city, Nebraska', '33761', '31', '25055']]
total population: %d 33761
City = Bellevue
[['Bellevue city, Nebraska', '53627', '31', '03950']]
total population: %d 53627
City = Omaha
[['Omaha city, Nebraska', '468262', '31', '37000']]
total population: %d 468262
City = Lincoln
[['Lincoln city, Nebraska', '287401', '31', '28000']]
total population: %d 287401
State = NV
City = Incline Village
[]
total population: %d 0
City = Henderson
[['Henderson city, Nevada', '310390', '32', '31900']]
total population: %d 310390
City = Reno
[['Reno city, Nevada', '250998', '32', '60600']]
total population: %d 250998
City = Las Vegas
[['Las Vegas city, Nevada', '644644', '32', '40000'], ['North Las Vegas city, Nevada', '245949', '32', '51800']]
total population: %d 890593
State = NH
City = Warner
[]
total population: %d 0
City = Merrimack
[]
total population: %d 0
City = Nashua
[['Nashua city, New Hampshire', '89246', '33', '50260']]
total population: %d 89246
City = Concord
[['Concord city, New Hampshire', '43412', '33', '14200']]
total population: %d 43412
City = Rindge
[]
total population: %d 0
City = Henniker
[]
total population: %d 0
City = Keene
[['Keene city, New Hampshire', '23056', '33', '39300']]
total population: %d 23056
City = Plymouth
[]
total population: %d 0
City = Hanover
[]
total population: %d 0
City = Durham
[]
total population: %d 0
City = Manchester
[['Manchester city, New Hampshire', '112525', '33', '45140']]
total population: %d 112525
State = NJ
City = Elizabeth
[['Elizabeth city, New Jersey', '128885', '34', '21000']]
total population: %d 128885
City = Adelphia
[]
total population: %d 0
City = Edison
[]
total population: %d 0
City = North Brunswick
[]
total population: %d 0
City = Morristown
[['Morristown town, New Jersey', '19145', '34', '48300']]
total population: %d 19145
City = Cherry Hill
[]
total population: %d 0
City = Hackettstown
[['Hackettstown town, New Jersey', '9463', '34', '28710']]
total population: %d 9463
City = Caldwell
[]
total population: %d 0
City = Lodi
[]
total population: %d 0
City = Bloomfield
[]
total population: %d 0
City = Hoboken
[['Hoboken city, New Jersey', '53455', '34', '32250']]
total population: %d 53455
City = Woodland Park
[]
total population: %d 0
City = Teaneck
[]
total population: %d 0
City = West Long Branch
[]
total population: %d 0
City = Princeton
[]
total population: %d 0
City = Mahwah
[]
total population: %d 0
City = Camden
[['Camden city, New Jersey', '73973', '34', '10000']]
total population: %d 73973
City = South Orange
[]
total population: %d 0
City = Jersey City
[['Jersey City city, New Jersey', '265549', '34', '36000']]
total population: %d 265549
City = Ewing
[]
total population: %d 0
City = Galloway
[]
total population: %d 0
City = Wayne
[]
total population: %d 0
City = Trenton
[['Trenton city, New Jersey', '83974', '34', '74000']]
total population: %d 83974
City = Union
[]
total population: %d 0
City = Glassboro
[]
total population: %d 0
City = Montclair
[]
total population: %d 0
City = New Brunswick
[['New Brunswick city, New Jersey', '56100', '34', '51210']]
total population: %d 56100
State = NM
City = Santa Fe
[['Santa Fe city, New Mexico', '84612', '35', '70500']]
total population: %d 84612
City = Hobbs
[['Hobbs city, New Mexico', '38277', '35', '32520']]
total population: %d 38277
City = Socorro
[['Socorro city, New Mexico', '8407', '35', '73540']]
total population: %d 8407
City = Silver City
[['Silver City town, New Mexico', '9529', '35', '73260']]
total population: %d 9529
City = Portales
[['Portales city, New Mexico', '11754', '35', '59260']]
total population: %d 11754
City = Las Cruces
[['Las Cruces city, New Mexico', '102926', '35', '39380']]
total population: %d 102926
City = Albuquerque
[['Albuquerque city, New Mexico', '560218', '35', '02000']]
total population: %d 560218
State = NY
City = Riverhead
[]
total population: %d 0
City = Kew Gardens
[]
total population: %d 0
City = Suffern
[]
total population: %d 0
City = Glen Cove
[['Glen Cove city, New York', '27201', '36', '29113']]
total population: %d 27201
City = Bohemia
[]
total population: %d 0
City = Far Rockaway
[]
total population: %d 0
City = Ossining
[]
total population: %d 0
City = Mount Kisco
[]
total population: %d 0
City = Flushing
[]
total population: %d 0
City = Spring Valley
[]
total population: %d 0
City = Monsey
[]
total population: %d 0
City = Dix Hills
[]
total population: %d 0
City = Hamburg
[]
total population: %d 0
City = Paul Smiths
[]
total population: %d 0
City = Cazenovia
[]
total population: %d 0
City = Elmira
[['Elmira city, New York', '27204', '36', '24229']]
total population: %d 27204
City = Kings Point
[]
total population: %d 0
City = Sparkill
[]
total population: %d 0
City = Bronxville
[]
total population: %d 0
City = Nyack
[]
total population: %d 0
City = Saint Bonaventure
[]
total population: %d 0
City = Alfred
[]
total population: %d 0
City = Throggs Neck
[]
total population: %d 0
City = Keuka Park
[]
total population: %d 0
City = Annandale-On-Hudson
[]
total population: %d 0
City = Newburgh
[['Newburgh city, New York', '28164', '36', '50034']]
total population: %d 28164
City = Schenectady
[['Schenectady city, New York', '65575', '36', '65508']]
total population: %d 65575
City = Geneva
[['Geneva city, New York', '12762', '36', '28640']]
total population: %d 12762
City = Brooklyn Heights
[]
total population: %d 0
City = Cobleskill
[]
total population: %d 0
City = Hamilton
[]
total population: %d 0
City = Niagara University
[]
total population: %d 0
City = New Rochelle
[['New Rochelle city, New York', '78742', '36', '50617']]
total population: %d 78742
City = Patchogue
[]
total population: %d 0
City = Canton
[]
total population: %d 0
City = Loudonville
[]
total population: %d 0
City = Brookville
[]
total population: %d 0
City = Potsdam
[]
total population: %d 0
City = Rockville Centre
[]
total population: %d 0
City = Utica
[['Utica city, New York', '60100', '36', '76540']]
total population: %d 60100
City = Riverdale
[]
total population: %d 0
City = Purchase
[]
total population: %d 0
City = Fredonia
[]
total population: %d 0
City = Old Westbury
[]
total population: %d 0
City = West  Point
[]
total population: %d 0
City = Garden City
[]
total population: %d 0
City = Plattsburgh
[['Plattsburgh city, New York', '19438', '36', '58574']]
total population: %d 19438
City = Poughkeepsie
[['Poughkeepsie city, New York', '30469', '36', '59641']]
total population: %d 30469
City = Geneseo
[]
total population: %d 0
City = Oneonta
[['Oneonta city, New York', '13918', '36', '54881']]
total population: %d 13918
City = Dobbs Ferry
[]
total population: %d 0
City = Cortland
[['Cortland city, New York', '18713', '36', '18388']]
total population: %d 18713
City = New Paltz
[]
total population: %d 0
City = Hempstead
[]
total population: %d 0
City = Jamaica
[]
total population: %d 0
City = Oswego
[['Oswego city, New York', '17337', '36', '55574']]
total population: %d 17337
City = Brockport
[]
total population: %d 0
City = Saratoga Springs
[['Saratoga Springs city, New York', '28005', '36', '65255']]
total population: %d 28005
City = Farmingdale
[]
total population: %d 0
City = Bronx
[]
total population: %d 0
City = Staten Island
[]
total population: %d 0
City = Rochester
[['Rochester city, New York', '206284', '36', '63000']]
total population: %d 206284
City = Vestal
[]
total population: %d 0
City = Brooklyn
[]
total population: %d 0
City = Syracuse
[['Syracuse city, New York', '142749', '36', '73000']]
total population: %d 142749
City = Ithaca
[['Ithaca city, New York', '30999', '36', '38077']]
total population: %d 30999
City = Queens
[]
total population: %d 0
City = Stony Brook
[]
total population: %d 0
City = Buffalo
[['Buffalo city, New York', '256304', '36', '11000']]
total population: %d 256304
City = New York
[['New York city, New York', '8398748', '36', '51000']]
total population: %d 8398748
City = Albany
[['Albany city, New York', '97279', '36', '01000']]
total population: %d 97279
State = NC
